{likes:[
{"school_state":"NY","resource_type":"Books","poverty_level":"highest poverty","grade_level":"Grades 9-12","total_donations":308,"funding_status":"completed","date_posted":"08/03/2007"},
{"school_state":"NY","resource_type":"Technology","poverty_level":"highest poverty","grade_level":"Grades 9-12","total_donations":329,"funding_status":"completed","date_posted":"11/11/2002"},
{"school_state":"NY","resource_type":"Books","poverty_level":"highest poverty","grade_level":"Grades 9-12","total_donations":382,"funding_status":"completed","date_posted":"11/11/2002"},
{"school_state":"NY","resource_type":"Trips","poverty_level":"highest poverty","grade_level":"Grades 9-12","total_donations":319,"funding_status":"completed","date_posted":"11/11/2002"},
{"school_state":"NY","resource_type":"Books","poverty_level":"highest poverty","grade_level":"Grades 9-12","total_donations":388.39,"funding_status":"completed","date_posted":"11/11/2002"},
{"school_state":"NY","resource_type":"Books","poverty_level":"low poverty","grade_level":"Grades 9-12","total_donations":353,"funding_status":"completed","date_posted":"11/11/2002"},
{"school_state":"NY","resource_type":"Books","poverty_level":"highest poverty","grade_level":"Grades 9-12","total_donations":327,"funding_status":"completed","date_posted":"11/11/2002"},
{"school_state":"NY","resource_type":"Books","poverty_level":"highest poverty","grade_level":"Grades 9-12","total_donations":846.35,"funding_status":"completed","date_posted":"11/11/2002"},
{"school_state":"NY","resource_type":"Visitors","poverty_level":"highest poverty","grade_level":"Grades 9-12","total_donations":440,"funding_status":"completed","date_posted":"11/11/2002"},
{"school_state":"NY","resource_type":"Technology","poverty_level":"highest poverty","grade_level":"Grades 9-12","total_donations":4600,"funding_status":"completed","date_posted":"08/01/2003"},
{"school_state":"NY","resource_type":"Books","poverty_level":"highest poverty","grade_level":"Grades 6-8","total_donations":2222335.27,"funding_status":"completed","date_posted":"11/11/2002"},
{"school_state":"NY","resource_type":"Technology","poverty_level":"highest poverty","grade_level":"Grades 9-12","total_donations":402,"funding_status":"completed","date_posted":"11/11/2002"},
{"school_state":"NY","resource_type":"Other","poverty_level":"highest poverty","grade_level":"Grades 9-12","total_donations":350,"funding_status":"completed","date_posted":"11/11/2002"},
{"school_state":"NY","resource_type":"Technology","poverty_level":"highest poverty","grade_level":"Grades 9-12","total_donations":2970,"funding_status":"completed","date_posted":"03/10/2002"},
{"school_state":"NY","resource_type":"Other","poverty_level":"highest poverty","grade_level":"Grades 9-12","total_donations":300,"funding_status":"completed","date_posted":"11/21/2002"},
{"school_state":"NY","resource_type":"Trips","poverty_level":"highest poverty","grade_level":"Grades 9-12","total_donations":700,"funding_status":"completed","date_posted":"11/11/2002"},
{"school_state":"NY","resource_type":"Technology","poverty_level":"highest poverty","grade_level":"Grades 9-12","total_donations":590,"funding_status":"completed","date_posted":"11/11/2002"},
{"school_state":"NY","resource_type":"Other","poverty_level":"highest poverty","grade_level":"Grades PreK-2","total_donations":0,"funding_status":"expired","date_posted":"07/11/2002"},
{"school_state":"NY","resource_type":"Trips","poverty_level":"low poverty","grade_level":"Grades 9-12","total_donations":1150,"funding_status":"completed","date_posted":"11/11/2002"},
{"school_state":"NY","resource_type":"Technology","poverty_level":"highest poverty","grade_level":"Grades 9-12","total_donations":1000,"funding_status":"completed","date_posted":"11/11/2002"},
{"school_state":"NY","resource_type":"Trips","poverty_level":"highest poverty","grade_level":"Grades 9-12","total_donations":750,"funding_status":"completed","date_posted":"11/11/2002"},
{"school_state":"NY","resource_type":"Supplies","poverty_level":"highest poverty","grade_level":"Grades PreK-2","total_donations":502.5,"funding_status":"completed","date_posted":"01/09/2018"},
{"school_state":"NY","resource_type":"Trips","poverty_level":"low poverty","grade_level":"Grades 9-12","total_donations":165,"funding_status":"completed","date_posted":"11/11/2002"},
{"school_state":"NY","resource_type":"Supplies","poverty_level":"highest poverty","grade_level":"Grades 9-12","total_donations":450,"funding_status":"completed","date_posted":"11/11/2002"},
{"school_state":"NY","resource_type":"Books","poverty_level":"highest poverty","grade_level":"Grades 9-12","total_donations":158.72,"funding_status":"completed","date_posted":"11/11/2002"},
{"school_state":"NY","resource_type":"Supplies","poverty_level":"low poverty","grade_level":"Grades 9-12","total_donations":500,"funding_status":"completed","date_posted":"11/11/2002"},
{"school_state":"NY","resource_type":"Books","poverty_level":"highest poverty","grade_level":"Grades 9-12","total_donations":1058,"funding_status":"completed","date_posted":"01/01/2003"},
{"school_state":"NY","resource_type":"Trips","poverty_level":"highest poverty","grade_level":"Grades 3-5","total_donations":1227,"funding_status":"completed","date_posted":"01/01/2011"},
{"school_state":"NY","resource_type":"Trips","poverty_level":"highest poverty","grade_level":"Grades 6-8","total_donations":450,"funding_status":"completed","date_posted":"11/11/2002"},
{"school_state":"NY","resource_type":"Books","poverty_level":"highest poverty","grade_level":"Grades 9-12","total_donations":1129.31,"funding_status":"completed","date_posted":"11/11/2002"},
{"school_state":"NY","resource_type":"Supplies","poverty_level":"highest poverty","grade_level":"Grades 6-8","total_donations":1977.1,"funding_status":"completed","date_posted":"11/11/2002"},
{"school_state":"NY","resource_type":"Technology","poverty_level":"low poverty","grade_level":"Grades 9-12","total_donations":923,"funding_status":"completed","date_posted":"11/11/2002"},
{"school_state":"NY","resource_type":"Books","poverty_level":"highest poverty","grade_level":"Grades 6-8","total_donations":828.49,"funding_status":"completed","date_posted":"11/11/2002"},
{"school_state":"NY","resource_type":"Supplies","poverty_level":"highest poverty","grade_level":"Grades 9-12","total_donations":253,"funding_status":"completed","date_posted":"11/11/2002"},
{"school_state":"NY","resource_type":"Technology","poverty_level":"highest poverty","grade_level":"Grades 9-12","total_donations":2614,"funding_status":"completed","date_posted":"07/11/2002"},
{"school_state":"NY","resource_type":"Technology","poverty_level":"highest poverty","grade_level":"Grades 9-12","total_donations":378,"funding_status":"completed","date_posted":"11/11/2002"},
{"school_state":"NY","resource_type":"Books","poverty_level":"highest poverty","grade_level":"Grades 9-12","total_donations":537.4,"funding_status":"completed","date_posted":"11/11/2002"},
{"school_state":"NY","resource_type":"Supplies","poverty_level":"highest poverty","grade_level":"Grades 9-12","total_donations":393.79,"funding_status":"completed","date_posted":"11/11/2002"},
{"school_state":"NY","resource_type":"Books","poverty_level":"highest poverty","grade_level":"Grades 6-8","total_donations":384,"funding_status":"completed","date_posted":"11/11/2002"},
{"school_state":"NY","resource_type":"Technology","poverty_level":"highest poverty","grade_level":"Grades 6-8","total_donations":2008,"funding_status":"completed","date_posted":"11/11/2002"},
{"school_state":"NY","resource_type":"Books","poverty_level":"highest poverty","grade_level":"Grades 3-5","total_donations":1200,"funding_status":"completed","date_posted":"01/01/2011"},
{"school_state":"NY","resource_type":"Technology","poverty_level":"highest poverty","grade_level":"Grades 9-12","total_donations":460.25,"funding_status":"completed","date_posted":"11/11/2002"},
{"school_state":"NY","resource_type":"Technology","poverty_level":"highest poverty","grade_level":"Grades 9-12","total_donations":2005.64,"funding_status":"completed","date_posted":"11/11/2002"},
{"school_state":"NY","resource_type":"Books","poverty_level":"highest poverty","grade_level":"Grades 3-5","total_donations":603,"funding_status":"completed","date_posted":"11/11/2002"},
{"school_state":"NY","resource_type":"Books","poverty_level":"highest poverty","grade_level":"Grades PreK-2","total_donations":112,"funding_status":"completed","date_posted":"11/11/2002"},
{"school_state":"NY","resource_type":"Books","poverty_level":"highest poverty","grade_level":"Grades 9-12","total_donations":187,"funding_status":"completed","date_posted":"11/11/2002"},
{"school_state":"NY","resource_type":"Books","poverty_level":"highest poverty","grade_level":"Grades PreK-2","total_donations":438,"funding_status":"completed","date_posted":"11/11/2002"},
{"school_state":"NY","resource_type":"Trips","poverty_level":"highest poverty","grade_level":"Grades 9-12","total_donations":530,"funding_status":"completed","date_posted":"11/11/2002"},
{"school_state":"NY","resource_type":"Supplies","poverty_level":"low poverty","grade_level":"Grades 3-5","total_donations":136,"funding_status":"completed","date_posted":"11/11/2002"},
{"school_state":"NY","resource_type":"Supplies","poverty_level":"highest poverty","grade_level":"Grades 9-12","total_donations":169,"funding_status":"completed","date_posted":"11/11/2002"},
{"school_state":"NY","resource_type":"Technology","poverty_level":"highest poverty","grade_level":"Grades 9-12","total_donations":222,"funding_status":"completed","date_posted":"11/11/2002"},
{"school_state":"NY","resource_type":"Trips","poverty_level":"highest poverty","grade_level":"Grades 9-12","total_donations":325,"funding_status":"completed","date_posted":"11/11/2002"},
{"school_state":"NY","resource_type":"Books","poverty_level":"highest poverty","grade_level":"Grades 6-8","total_donations":249,"funding_status":"completed","date_posted":"11/11/2002"},
{"school_state":"NY","resource_type":"Technology","poverty_level":"highest poverty","grade_level":"Grades 9-12","total_donations":1186,"funding_status":"completed","date_posted":"11/11/2002"},
{"school_state":"NY","resource_type":"Technology","poverty_level":"highest poverty","grade_level":"Grades 6-8","total_donations":840,"funding_status":"completed","date_posted":"11/11/2002"},
{"school_state":"NY","resource_type":"Trips","poverty_level":"highest poverty","grade_level":"Grades 9-12","total_donations":1000,"funding_status":"completed","date_posted":"11/11/2002"},
{"school_state":"NY","resource_type":"Technology","poverty_level":"highest poverty","grade_level":"Grades 9-12","total_donations":3638,"funding_status":"completed","date_posted":"11/11/2002"},
{"school_state":"NY","resource_type":"Technology","poverty_level":"highest poverty","grade_level":"Grades 3-5","total_donations":630,"funding_status":"completed","date_posted":"11/11/2002"},
{"school_state":"NY","resource_type":"Technology","poverty_level":"highest poverty","grade_level":"Grades 6-8","total_donations":462,"funding_status":"completed","date_posted":"11/11/2002"},
{"school_state":"NY","resource_type":"Trips","poverty_level":"highest poverty","grade_level":"Grades PreK-2","total_donations":768,"funding_status":"completed","date_posted":"07/11/2002"},
{"school_state":"NY","resource_type":"Supplies","poverty_level":"low poverty","grade_level":"Grades 9-12","total_donations":538,"funding_status":"completed","date_posted":"11/11/2002"},
{"school_state":"NY","resource_type":"Technology","poverty_level":"highest poverty","grade_level":"Grades 9-12","total_donations":2400,"funding_status":"completed","date_posted":"11/11/2002"},
{"school_state":"NY","resource_type":"Books","poverty_level":"highest poverty","grade_level":"Grades 9-12","total_donations":1760,"funding_status":"completed","date_posted":"11/11/2002"},
{"school_state":"NY","resource_type":"Books","poverty_level":"highest poverty","grade_level":"Grades 3-5","total_donations":198,"funding_status":"completed","date_posted":"11/11/2002"},
{"school_state":"NY","resource_type":"Visitors","poverty_level":"low poverty","grade_level":"Grades 9-12","total_donations":700,"funding_status":"completed","date_posted":"11/11/2002"},
{"school_state":"NY","resource_type":"Visitors","poverty_level":"low poverty","grade_level":"Grades 9-12","total_donations":700,"funding_status":"completed","date_posted":"11/11/2002"},
{"school_state":"NY","resource_type":"Books","poverty_level":"highest poverty","grade_level":"Grades 6-8","total_donations":214,"funding_status":"completed","date_posted":"11/11/2002"},
{"school_state":"NY","resource_type":"Technology","poverty_level":"highest poverty","grade_level":"Grades 9-12","total_donations":3462,"funding_status":"completed","date_posted":"07/11/2002"},
{"school_state":"NY","resource_type":"Books","poverty_level":"low poverty","grade_level":"Grades 9-12","total_donations":743,"funding_status":"completed","date_posted":"11/11/2002"},
{"school_state":"NY","resource_type":"Books","poverty_level":"highest poverty","grade_level":"Grades 6-8","total_donations":199,"funding_status":"completed","date_posted":"11/11/2002"},
{"school_state":"NY","resource_type":"Technology","poverty_level":"high poverty","grade_level":"Grades 9-12","total_donations":1760,"funding_status":"completed","date_posted":"01/01/2011"},
{"school_state":"NY","resource_type":"Supplies","poverty_level":"highest poverty","grade_level":"Grades 9-12","total_donations":512,"funding_status":"completed","date_posted":"11/11/2002"},
{"school_state":"NY","resource_type":"Supplies","poverty_level":"highest poverty","grade_level":"Grades PreK-2","total_donations":1510,"funding_status":"completed","date_posted":"04/09/2002"},
{"school_state":"NY","resource_type":"Technology","poverty_level":"moderate poverty","grade_level":"Grades 9-12","total_donations":780,"funding_status":"completed","date_posted":"11/11/2002"},
{"school_state":"NY","resource_type":"Supplies","poverty_level":"highest poverty","grade_level":"Grades 9-12","total_donations":1512,"funding_status":"completed","date_posted":"11/11/2002"},
{"school_state":"NY","resource_type":"Technology","poverty_level":"low poverty","grade_level":"Grades 9-12","total_donations":699,"funding_status":"completed","date_posted":"11/11/2002"},
{"school_state":"NY","resource_type":"Books","poverty_level":"highest poverty","grade_level":"Grades 3-5","total_donations":1277.54,"funding_status":"completed","date_posted":"07/11/2002"},
{"school_state":"NY","resource_type":"Technology","poverty_level":"highest poverty","grade_level":"Grades 9-12","total_donations":380,"funding_status":"completed","date_posted":"11/11/2002"},
{"school_state":"NY","resource_type":"Technology","poverty_level":"highest poverty","grade_level":"Grades 9-12","total_donations":830,"funding_status":"completed","date_posted":"11/11/2002"},
{"school_state":"NY","resource_type":"Supplies","poverty_level":"highest poverty","grade_level":"Grades 9-12","total_donations":350,"funding_status":"completed","date_posted":"11/11/2002"},
{"school_state":"NY","resource_type":"Books","poverty_level":"highest poverty","grade_level":"Grades 6-8","total_donations":420,"funding_status":"completed","date_posted":"11/11/2002"},
{"school_state":"NY","resource_type":"Trips","poverty_level":"highest poverty","grade_level":"Grades PreK-2","total_donations":850,"funding_status":"expired","date_posted":"04/09/2002"},
{"school_state":"NY","resource_type":"Books","poverty_level":"highest poverty","grade_level":"Grades 3-5","total_donations":429,"funding_status":"completed","date_posted":"11/11/2002"},
{"school_state":"NY","resource_type":"Supplies","poverty_level":"highest poverty","grade_level":"Grades 9-12","total_donations":3499,"funding_status":"completed","date_posted":"11/11/2002"},
{"school_state":"NY","resource_type":"Supplies","poverty_level":"highest poverty","grade_level":"Grades 9-12","total_donations":0,"funding_status":"completed","date_posted":"11/12/2002"},
{"school_state":"NY","resource_type":"Trips","poverty_level":"low poverty","grade_level":"Grades 9-12","total_donations":1325,"funding_status":"completed","date_posted":"11/11/2002"},
{"school_state":"NY","resource_type":"Supplies","poverty_level":"highest poverty","grade_level":"Grades 9-12","total_donations":0,"funding_status":"completed","date_posted":"11/11/2002"},
{"school_state":"NY","resource_type":"Books","poverty_level":"highest poverty","grade_level":"Grades 9-12","total_donations":200,"funding_status":"completed","date_posted":"11/11/2002"},
{"school_state":"NY","resource_type":"Trips","poverty_level":"highest poverty","grade_level":"Grades 9-12","total_donations":389,"funding_status":"completed","date_posted":"01/01/2011"},
{"school_state":"NY","resource_type":"Other","poverty_level":"highest poverty","grade_level":"Grades 9-12","total_donations":577,"funding_status":"completed","date_posted":"07/09/2002"},
{"school_state":"NY","resource_type":"Technology","poverty_level":"low poverty","grade_level":"Grades 9-12","total_donations":399,"funding_status":"completed","date_posted":"03/10/2002"},
{"school_state":"NY","resource_type":"Technology","poverty_level":"highest poverty","grade_level":"Grades 9-12","total_donations":935,"funding_status":"completed","date_posted":"11/11/2002"},
{"school_state":"NY","resource_type":"Technology","poverty_level":"highest poverty","grade_level":"Grades 9-12","total_donations":4700,"funding_status":"completed","date_posted":"11/11/2002"},
{"school_state":"NY","resource_type":"Books","poverty_level":"highest poverty","grade_level":"Grades 9-12","total_donations":209,"funding_status":"completed","date_posted":"11/11/2002"},
{"school_state":"NY","resource_type":"Trips","poverty_level":"highest poverty","grade_level":"Grades 9-12","total_donations":1000,"funding_status":"completed","date_posted":"11/11/2002"},
{"school_state":"NY","resource_type":"Technology","poverty_level":"highest poverty","grade_level":"Grades 9-12","total_donations":233,"funding_status":"completed","date_posted":"03/10/2002"},
{"school_state":"NY","resource_type":"Technology","poverty_level":"highest poverty","grade_level":"Grades 9-12","total_donations":5069,"funding_status":"completed","date_posted":"11/11/2002"},
{"school_state":"NY","resource_type":"Supplies","poverty_level":"highest poverty","grade_level":"Grades 9-12","total_donations":435,"funding_status":"completed","date_posted":"11/11/2002"},
{"school_state":"NY","resource_type":"Technology","poverty_level":"low poverty","grade_level":"Grades 9-12","total_donations":300,"funding_status":"completed","date_posted":"11/11/2002"},
{"school_state":"NY","resource_type":"Technology","poverty_level":"highest poverty","grade_level":"Grades 9-12","total_donations":1241,"funding_status":"completed","date_posted":"07/09/2002"},
{"school_state":"NY","resource_type":"Other","poverty_level":"highest poverty","grade_level":"Grades PreK-2","total_donations":0,"funding_status":"expired","date_posted":"07/11/2002"},
{"school_state":"NY","resource_type":"Supplies","poverty_level":"highest poverty","grade_level":"Grades 6-8","total_donations":385,"funding_status":"completed","date_posted":"11/11/2002"},
{"school_state":"NY","resource_type":"Other","poverty_level":"highest poverty","grade_level":"Grades PreK-2","total_donations":0,"funding_status":"completed","date_posted":"07/11/2002"},
{"school_state":"NY","resource_type":"Technology","poverty_level":"highest poverty","grade_level":"Grades 9-12","total_donations":267,"funding_status":"completed","date_posted":"11/11/2002"},
{"school_state":"NY","resource_type":"Technology","poverty_level":"low poverty","grade_level":"Grades 6-8","total_donations":88,"funding_status":"completed","date_posted":"11/11/2002"},
{"school_state":"NY","resource_type":"Technology","poverty_level":"highest poverty","grade_level":"Grades 3-5","total_donations":230,"funding_status":"completed","date_posted":"11/11/2002"},
{"school_state":"NY","resource_type":"Supplies","poverty_level":"moderate poverty","grade_level":"Grades 3-5","total_donations":125,"funding_status":"completed","date_posted":"06/09/2002"},
{"school_state":"NY","resource_type":"Technology","poverty_level":"highest poverty","grade_level":"Grades 6-8","total_donations":0,"funding_status":"completed","date_posted":"11/11/2002"},
{"school_state":"NY","resource_type":"Books","poverty_level":"highest poverty","grade_level":"Grades 3-5","total_donations":430,"funding_status":"completed","date_posted":"11/11/2002"},
{"school_state":"NY","resource_type":"Supplies","poverty_level":"highest poverty","grade_level":"Grades 6-8","total_donations":214,"funding_status":"completed","date_posted":"11/11/2002"},
{"school_state":"NY","resource_type":"Supplies","poverty_level":"highest poverty","grade_level":"Grades 3-5","total_donations":135,"funding_status":"completed","date_posted":"11/11/2002"},
{"school_state":"NY","resource_type":"Technology","poverty_level":"highest poverty","grade_level":"Grades PreK-2","total_donations":1100,"funding_status":"completed","date_posted":"11/11/2002"},
{"school_state":"NY","resource_type":"Supplies","poverty_level":"highest poverty","grade_level":"Grades 6-8","total_donations":690.91,"funding_status":"completed","date_posted":"08/09/2002"},
{"school_state":"NY","resource_type":"Books","poverty_level":"highest poverty","grade_level":"Grades 3-5","total_donations":390,"funding_status":"completed","date_posted":"11/11/2002"},
{"school_state":"NY","resource_type":"Supplies","poverty_level":"highest poverty","grade_level":"Grades 9-12","total_donations":550,"funding_status":"completed","date_posted":"11/11/2002"},
{"school_state":"NY","resource_type":"Books","poverty_level":"highest poverty","grade_level":"Grades 3-5","total_donations":560,"funding_status":"completed","date_posted":"11/11/2002"},
{"school_state":"NY","resource_type":"Books","poverty_level":"highest poverty","grade_level":"Grades 3-5","total_donations":200,"funding_status":"completed","date_posted":"11/11/2002"},
{"school_state":"NY","resource_type":"Supplies","poverty_level":"highest poverty","grade_level":"Grades PreK-2","total_donations":1873,"funding_status":"completed","date_posted":"08/11/2002"},
{"school_state":"NY","resource_type":"Trips","poverty_level":"highest poverty","grade_level":"Grades 3-5","total_donations":484,"funding_status":"completed","date_posted":"11/11/2002"},
{"school_state":"NY","resource_type":"Books","poverty_level":"highest poverty","grade_level":"Grades 6-8","total_donations":353,"funding_status":"completed","date_posted":"11/11/2002"},
{"school_state":"NY","resource_type":"Books","poverty_level":"highest poverty","grade_level":"Grades 6-8","total_donations":352,"funding_status":"completed","date_posted":"11/11/2002"},
{"school_state":"NY","resource_type":"Books","poverty_level":"highest poverty","grade_level":"Grades 3-5","total_donations":325,"funding_status":"completed","date_posted":"11/11/2002"},
{"school_state":"NY","resource_type":"Supplies","poverty_level":"highest poverty","grade_level":"Grades PreK-2","total_donations":619,"funding_status":"completed","date_posted":"11/11/2002"},
{"school_state":"NY","resource_type":"Trips","poverty_level":"low poverty","grade_level":"Grades 9-12","total_donations":3378,"funding_status":"completed","date_posted":"08/11/2002"},
{"school_state":"NY","resource_type":"Technology","poverty_level":"highest poverty","grade_level":"Grades 3-5","total_donations":126,"funding_status":"completed","date_posted":"11/11/2002"},
{"school_state":"NY","resource_type":"Books","poverty_level":"highest poverty","grade_level":"Grades 3-5","total_donations":0,"funding_status":"completed","date_posted":"10/10/2002"},
{"school_state":"NY","resource_type":"Books","poverty_level":"highest poverty","grade_level":"Grades 3-5","total_donations":187,"funding_status":"completed","date_posted":"11/11/2002"},
{"school_state":"NY","resource_type":"Supplies","poverty_level":"highest poverty","grade_level":"Grades 3-5","total_donations":560,"funding_status":"completed","date_posted":"11/11/2002"},
{"school_state":"NY","resource_type":"Supplies","poverty_level":"highest poverty","grade_level":"Grades 6-8","total_donations":400,"funding_status":"completed","date_posted":"11/11/2002"},
{"school_state":"NY","resource_type":"Books","poverty_level":"highest poverty","grade_level":"Grades 3-5","total_donations":410,"funding_status":"completed","date_posted":"11/11/2002"},
{"school_state":"NY","resource_type":"Supplies","poverty_level":"highest poverty","grade_level":"Grades 6-8","total_donations":143,"funding_status":"completed","date_posted":"09/11/2002"},
{"school_state":"NY","resource_type":"Trips","poverty_level":"highest poverty","grade_level":"Grades 3-5","total_donations":440,"funding_status":"completed","date_posted":"09/11/2002"},
{"school_state":"NY","resource_type":"Supplies","poverty_level":"highest poverty","grade_level":"Grades 6-8","total_donations":104,"funding_status":"completed","date_posted":"03/10/2002"},
{"school_state":"NY","resource_type":"Supplies","poverty_level":"highest poverty","grade_level":"Grades PreK-2","total_donations":265,"funding_status":"completed","date_posted":"09/11/2002"},
{"school_state":"NY","resource_type":"Supplies","poverty_level":"highest poverty","grade_level":"Grades 3-5","total_donations":79,"funding_status":"completed","date_posted":"09/11/2002"},
{"school_state":"NY","resource_type":"Technology","poverty_level":"highest poverty","grade_level":"Grades PreK-2","total_donations":600,"funding_status":"completed","date_posted":"09/11/2002"},
{"school_state":"NY","resource_type":"Books","poverty_level":"highest poverty","grade_level":"Grades 9-12","total_donations":440,"funding_status":"completed","date_posted":"09/11/2002"},
{"school_state":"NY","resource_type":"Books","poverty_level":"highest poverty","grade_level":"Grades 3-5","total_donations":300,"funding_status":"completed","date_posted":"11/11/2002"},
{"school_state":"NY","resource_type":"Supplies","poverty_level":"highest poverty","grade_level":"Grades 9-12","total_donations":600,"funding_status":"completed","date_posted":"09/11/2002"},
{"school_state":"NY","resource_type":"Technology","poverty_level":"highest poverty","grade_level":"Grades 6-8","total_donations":1000,"funding_status":"completed","date_posted":"09/11/2002"},
{"school_state":"NY","resource_type":"Trips","poverty_level":"highest poverty","grade_level":"Grades 3-5","total_donations":407,"funding_status":"completed","date_posted":"03/10/2002"},
{"school_state":"NY","resource_type":"Supplies","poverty_level":"highest poverty","grade_level":"Grades 3-5","total_donations":0,"funding_status":"completed","date_posted":"09/11/2002"},
{"school_state":"NY","resource_type":"Books","poverty_level":"highest poverty","grade_level":"Grades 3-5","total_donations":315,"funding_status":"completed","date_posted":"11/11/2002"},
{"school_state":"NY","resource_type":"Books","poverty_level":"highest poverty","grade_level":"Grades 9-12","total_donations":212,"funding_status":"completed","date_posted":"09/11/2002"},
{"school_state":"NY","resource_type":"Books","poverty_level":"highest poverty","grade_level":"Grades 9-12","total_donations":1350,"funding_status":"completed","date_posted":"09/11/2002"},
{"school_state":"NY","resource_type":"Books","poverty_level":"highest poverty","grade_level":"Grades 6-8","total_donations":176,"funding_status":"completed","date_posted":"09/11/2002"},
{"school_state":"NY","resource_type":"Trips","poverty_level":"highest poverty","grade_level":"Grades 6-8","total_donations":261,"funding_status":"completed","date_posted":"09/11/2002"},
{"school_state":"NY","resource_type":"Supplies","poverty_level":"highest poverty","grade_level":"Grades 3-5","total_donations":400,"funding_status":"completed","date_posted":"09/11/2002"},
{"school_state":"NY","resource_type":"Supplies","poverty_level":"highest poverty","grade_level":"Grades 3-5","total_donations":377,"funding_status":"completed","date_posted":"09/11/2002"},
{"school_state":"NY","resource_type":"Books","poverty_level":"highest poverty","grade_level":"Grades 9-12","total_donations":1200,"funding_status":"completed","date_posted":"09/11/2002"},
{"school_state":"NY","resource_type":"Trips","poverty_level":"highest poverty","grade_level":"Grades 9-12","total_donations":1911,"funding_status":"completed","date_posted":"08/11/2002"},
{"school_state":"NY","resource_type":"Technology","poverty_level":"low poverty","grade_level":"Grades PreK-2","total_donations":240,"funding_status":"completed","date_posted":"09/11/2002"},
{"school_state":"NY","resource_type":"Visitors","poverty_level":"moderate poverty","grade_level":"Grades PreK-2","total_donations":300,"funding_status":"completed","date_posted":"09/11/2002"},
{"school_state":"NY","resource_type":"Supplies","poverty_level":"highest poverty","grade_level":"Grades 3-5","total_donations":154,"funding_status":"completed","date_posted":"09/11/2002"},
{"school_state":"NY","resource_type":"Other","poverty_level":"highest poverty","grade_level":"Grades PreK-2","total_donations":0,"funding_status":"expired","date_posted":"07/11/2002"},
{"school_state":"NY","resource_type":"Books","poverty_level":"highest poverty","grade_level":"Grades 9-12","total_donations":2100,"funding_status":"completed","date_posted":"09/09/2002"},
{"school_state":"NY","resource_type":"Books","poverty_level":"highest poverty","grade_level":"Grades 9-12","total_donations":1300,"funding_status":"completed","date_posted":"09/11/2002"},
{"school_state":"NY","resource_type":"Technology","poverty_level":"highest poverty","grade_level":"Grades PreK-2","total_donations":242,"funding_status":"completed","date_posted":"09/11/2002"},
{"school_state":"NY","resource_type":"Technology","poverty_level":"highest poverty","grade_level":"Grades 3-5","total_donations":605,"funding_status":"completed","date_posted":"09/11/2002"},
{"school_state":"NY","resource_type":"Trips","poverty_level":"highest poverty","grade_level":"Grades 6-8","total_donations":351.6,"funding_status":"completed","date_posted":"09/11/2002"},
{"school_state":"NY","resource_type":"Books","poverty_level":"highest poverty","grade_level":"Grades 9-12","total_donations":385,"funding_status":"completed","date_posted":"09/11/2002"},
{"school_state":"NY","resource_type":"Books","poverty_level":"high poverty","grade_level":"Grades 6-8","total_donations":214,"funding_status":"completed","date_posted":"09/11/2002"},
{"school_state":"NY","resource_type":"Other","poverty_level":"highest poverty","grade_level":"Grades PreK-2","total_donations":0,"funding_status":"completed","date_posted":"06/12/2002"},
{"school_state":"NY","resource_type":"Technology","poverty_level":"highest poverty","grade_level":"Grades 3-5","total_donations":301,"funding_status":"completed","date_posted":"09/11/2002"},
{"school_state":"NY","resource_type":"Books","poverty_level":"highest poverty","grade_level":"Grades 9-12","total_donations":0,"funding_status":"completed","date_posted":"09/11/2002"},
{"school_state":"NY","resource_type":"Books","poverty_level":"highest poverty","grade_level":"Grades 3-5","total_donations":0,"funding_status":"completed","date_posted":"09/11/2002"},
{"school_state":"NY","resource_type":"Technology","poverty_level":"highest poverty","grade_level":"Grades PreK-2","total_donations":252,"funding_status":"completed","date_posted":"09/11/2002"},
{"school_state":"NY","resource_type":"Supplies","poverty_level":"highest poverty","grade_level":"Grades PreK-2","total_donations":250,"funding_status":"completed","date_posted":"09/09/2002"},
{"school_state":"NY","resource_type":"Technology","poverty_level":"highest poverty","grade_level":"Grades 3-5","total_donations":330,"funding_status":"completed","date_posted":"03/10/2002"},
{"school_state":"NY","resource_type":"Technology","poverty_level":"highest poverty","grade_level":"Grades 3-5","total_donations":385,"funding_status":"completed","date_posted":"03/10/2002"},
{"school_state":"NY","resource_type":"Technology","poverty_level":"highest poverty","grade_level":"Grades PreK-2","total_donations":68,"funding_status":"completed","date_posted":"09/11/2002"},
{"school_state":"NY","resource_type":"Trips","poverty_level":"highest poverty","grade_level":"Grades 9-12","total_donations":800,"funding_status":"completed","date_posted":"09/11/2002"},
{"school_state":"NY","resource_type":"Technology","poverty_level":"highest poverty","grade_level":"Grades PreK-2","total_donations":227,"funding_status":"completed","date_posted":"09/11/2002"},
{"school_state":"NY","resource_type":"Supplies","poverty_level":"low poverty","grade_level":"Grades 9-12","total_donations":0,"funding_status":"completed","date_posted":"09/09/2002"},
{"school_state":"NY","resource_type":"Books","poverty_level":"highest poverty","grade_level":"Grades 3-5","total_donations":0,"funding_status":"completed","date_posted":"09/11/2002"},
{"school_state":"NY","resource_type":"Books","poverty_level":"highest poverty","grade_level":"Grades 3-5","total_donations":442,"funding_status":"completed","date_posted":"03/10/2002"},
{"school_state":"NY","resource_type":"Supplies","poverty_level":"highest poverty","grade_level":"Grades 9-12","total_donations":0,"funding_status":"completed","date_posted":"07/11/2002"},
{"school_state":"NY","resource_type":"Supplies","poverty_level":"highest poverty","grade_level":"Grades PreK-2","total_donations":385,"funding_status":"completed","date_posted":"09/11/2002"},
{"school_state":"NY","resource_type":"Technology","poverty_level":"highest poverty","grade_level":"Grades 9-12","total_donations":0,"funding_status":"completed","date_posted":"09/11/2002"},
{"school_state":"NY","resource_type":"Trips","poverty_level":"highest poverty","grade_level":"Grades PreK-2","total_donations":133,"funding_status":"expired","date_posted":"04/09/2002"},
{"school_state":"NY","resource_type":"Technology","poverty_level":"highest poverty","grade_level":"Grades PreK-2","total_donations":253,"funding_status":"completed","date_posted":"09/11/2002"},
{"school_state":"NY","resource_type":"Technology","poverty_level":"highest poverty","grade_level":"Grades 9-12","total_donations":572,"funding_status":"completed","date_posted":"03/10/2002"},
{"school_state":"NY","resource_type":"Books","poverty_level":"highest poverty","grade_level":"Grades PreK-2","total_donations":586,"funding_status":"completed","date_posted":"09/11/2002"},
{"school_state":"NY","resource_type":"Books","poverty_level":"highest poverty","grade_level":"Grades 9-12","total_donations":1335,"funding_status":"completed","date_posted":"09/11/2002"},
{"school_state":"NY","resource_type":"Books","poverty_level":"highest poverty","grade_level":"Grades 3-5","total_donations":0,"funding_status":"completed","date_posted":"09/11/2002"},
{"school_state":"NY","resource_type":"Supplies","poverty_level":"highest poverty","grade_level":"Grades PreK-2","total_donations":220,"funding_status":"completed","date_posted":"09/11/2002"},
{"school_state":"NY","resource_type":"Supplies","poverty_level":"highest poverty","grade_level":"Grades PreK-2","total_donations":47,"funding_status":"completed","date_posted":"09/11/2002"},
{"school_state":"NY","resource_type":"Supplies","poverty_level":"highest poverty","grade_level":"Grades 3-5","total_donations":0,"funding_status":"completed","date_posted":"09/11/2002"},
{"school_state":"NY","resource_type":"Technology","poverty_level":"highest poverty","grade_level":"Grades PreK-2","total_donations":65,"funding_status":"completed","date_posted":"09/11/2002"},
{"school_state":"NY","resource_type":"Books","poverty_level":"highest poverty","grade_level":"Grades 6-8","total_donations":599,"funding_status":"completed","date_posted":"09/11/2002"},
{"school_state":"NY","resource_type":"Supplies","poverty_level":"highest poverty","grade_level":"Grades 9-12","total_donations":737,"funding_status":"completed","date_posted":"09/11/2002"},
{"school_state":"NY","resource_type":"Supplies","poverty_level":"highest poverty","grade_level":"Grades PreK-2","total_donations":374,"funding_status":"completed","date_posted":"03/10/2002"},
{"school_state":"NY","resource_type":"Supplies","poverty_level":"highest poverty","grade_level":"Grades PreK-2","total_donations":484,"funding_status":"completed","date_posted":"09/11/2002"},
{"school_state":"NY","resource_type":"Technology","poverty_level":"highest poverty","grade_level":"Grades 3-5","total_donations":286,"funding_status":"completed","date_posted":"11/10/2002"},
{"school_state":"NY","resource_type":"Technology","poverty_level":"highest poverty","grade_level":"Grades PreK-2","total_donations":54,"funding_status":"completed","date_posted":"09/09/2002"},
{"school_state":"NY","resource_type":"Books","poverty_level":"highest poverty","grade_level":"Grades 3-5","total_donations":0,"funding_status":"completed","date_posted":"09/09/2002"},
{"school_state":"NY","resource_type":"Technology","poverty_level":"highest poverty","grade_level":"Grades 3-5","total_donations":383,"funding_status":"completed","date_posted":"09/09/2002"},
{"school_state":"NY","resource_type":"Trips","poverty_level":"highest poverty","grade_level":"Grades 6-8","total_donations":264,"funding_status":"completed","date_posted":"09/11/2002"},
{"school_state":"NY","resource_type":"Technology","poverty_level":"highest poverty","grade_level":"Grades 3-5","total_donations":385,"funding_status":"completed","date_posted":"09/09/2002"},
{"school_state":"NY","resource_type":"Technology","poverty_level":"highest poverty","grade_level":"Grades 3-5","total_donations":0,"funding_status":"completed","date_posted":"11/11/2002"},
{"school_state":"NY","resource_type":"Technology","poverty_level":"highest poverty","grade_level":"Grades 6-8","total_donations":238,"funding_status":"completed","date_posted":"09/09/2002"},
{"school_state":"NY","resource_type":"Technology","poverty_level":"highest poverty","grade_level":"Grades PreK-2","total_donations":374,"funding_status":"completed","date_posted":"07/09/2002"},
{"school_state":"NY","resource_type":"Books","poverty_level":"highest poverty","grade_level":"Grades 9-12","total_donations":1243.4,"funding_status":"completed","date_posted":"09/09/2002"},
{"school_state":"NY","resource_type":"Supplies","poverty_level":"highest poverty","grade_level":"Grades 3-5","total_donations":291,"funding_status":"completed","date_posted":"09/09/2002"},
{"school_state":"NY","resource_type":"Supplies","poverty_level":"highest poverty","grade_level":"Grades 3-5","total_donations":231,"funding_status":"completed","date_posted":"09/09/2002"},
{"school_state":"NY","resource_type":"Technology","poverty_level":"highest poverty","grade_level":"Grades 9-12","total_donations":0,"funding_status":"completed","date_posted":"09/09/2002"},
{"school_state":"NY","resource_type":"Technology","poverty_level":"highest poverty","grade_level":"Grades 9-12","total_donations":942,"funding_status":"completed","date_posted":"09/09/2002"},
{"school_state":"NY","resource_type":"Supplies","poverty_level":"highest poverty","grade_level":"Grades 6-8","total_donations":74,"funding_status":"completed","date_posted":"09/09/2002"},
{"school_state":"NY","resource_type":"Technology","poverty_level":"highest poverty","grade_level":"Grades PreK-2","total_donations":214,"funding_status":"completed","date_posted":"09/11/2002"},
{"school_state":"NY","resource_type":"Technology","poverty_level":"highest poverty","grade_level":"Grades PreK-2","total_donations":330,"funding_status":"completed","date_posted":"11/11/2002"},
{"school_state":"NY","resource_type":"Other","poverty_level":"highest poverty","grade_level":"Grades 3-5","total_donations":250,"funding_status":"completed","date_posted":"09/09/2002"},
{"school_state":"NY","resource_type":"Supplies","poverty_level":"highest poverty","grade_level":"Grades 3-5","total_donations":140,"funding_status":"completed","date_posted":"09/09/2002"},
{"school_state":"NY","resource_type":"Supplies","poverty_level":"low poverty","grade_level":"Grades 3-5","total_donations":200,"funding_status":"completed","date_posted":"09/09/2002"},
{"school_state":"NY","resource_type":"Technology","poverty_level":"low poverty","grade_level":"Grades 3-5","total_donations":244,"funding_status":"completed","date_posted":"09/09/2002"},
{"school_state":"NY","resource_type":"Technology","poverty_level":"highest poverty","grade_level":"Grades PreK-2","total_donations":335,"funding_status":"completed","date_posted":"09/09/2002"},
{"school_state":"NY","resource_type":"Supplies","poverty_level":"highest poverty","grade_level":"Grades PreK-2","total_donations":0,"funding_status":"completed","date_posted":"09/09/2002"},
{"school_state":"NY","resource_type":"Technology","poverty_level":"highest poverty","grade_level":"Grades PreK-2","total_donations":1099.84,"funding_status":"completed","date_posted":"09/09/2002"},
{"school_state":"NY","resource_type":"Books","poverty_level":"highest poverty","grade_level":"Grades 6-8","total_donations":978,"funding_status":"completed","date_posted":"09/09/2002"},
{"school_state":"NY","resource_type":"Trips","poverty_level":"highest poverty","grade_level":"Grades 9-12","total_donations":2623,"funding_status":"completed","date_posted":"09/09/2002"},
{"school_state":"NY","resource_type":"Supplies","poverty_level":"highest poverty","grade_level":"Grades PreK-2","total_donations":121,"funding_status":"completed","date_posted":"09/09/2002"},
{"school_state":"NY","resource_type":"Supplies","poverty_level":"low poverty","grade_level":"Grades PreK-2","total_donations":53,"funding_status":"completed","date_posted":"09/09/2002"},
{"school_state":"NY","resource_type":"Supplies","poverty_level":"high poverty","grade_level":"Grades 6-8","total_donations":1067,"funding_status":"completed","date_posted":"09/09/2002"},
{"school_state":"NY","resource_type":"Supplies","poverty_level":"highest poverty","grade_level":"Grades PreK-2","total_donations":654,"funding_status":"completed","date_posted":"09/09/2002"},
{"school_state":"NY","resource_type":"Books","poverty_level":"highest poverty","grade_level":"Grades 3-5","total_donations":314,"funding_status":"completed","date_posted":"09/09/2002"},
{"school_state":"NY","resource_type":"Books","poverty_level":"highest poverty","grade_level":"Grades PreK-2","total_donations":129,"funding_status":"completed","date_posted":"09/09/2002"},
{"school_state":"NY","resource_type":"Technology","poverty_level":"highest poverty","grade_level":"Grades 3-5","total_donations":415.35,"funding_status":"completed","date_posted":"09/11/2002"},
{"school_state":"NY","resource_type":"Supplies","poverty_level":"highest poverty","grade_level":"Grades PreK-2","total_donations":83,"funding_status":"completed","date_posted":"09/09/2002"},
{"school_state":"NY","resource_type":"Supplies","poverty_level":"highest poverty","grade_level":"Grades PreK-2","total_donations":230,"funding_status":"completed","date_posted":"09/09/2002"},
{"school_state":"NY","resource_type":"Books","poverty_level":"highest poverty","grade_level":"Grades 9-12","total_donations":1559,"funding_status":"completed","date_posted":"08/09/2002"},
{"school_state":"NY","resource_type":"Supplies","poverty_level":"highest poverty","grade_level":"Grades 3-5","total_donations":200,"funding_status":"completed","date_posted":"09/09/2002"},
{"school_state":"NY","resource_type":"Supplies","poverty_level":"highest poverty","grade_level":"Grades 3-5","total_donations":283,"funding_status":"completed","date_posted":"09/09/2002"},
{"school_state":"NY","resource_type":"Books","poverty_level":"highest poverty","grade_level":"Grades 3-5","total_donations":502.5,"funding_status":"completed","date_posted":"09/09/2002"},
{"school_state":"NY","resource_type":"Supplies","poverty_level":"highest poverty","grade_level":"Grades 6-8","total_donations":270,"funding_status":"completed","date_posted":"09/09/2002"},
{"school_state":"NY","resource_type":"Books","poverty_level":"highest poverty","grade_level":"Grades 6-8","total_donations":253,"funding_status":"completed","date_posted":"09/09/2002"},
{"school_state":"NY","resource_type":"Supplies","poverty_level":"highest poverty","grade_level":"Grades 6-8","total_donations":285,"funding_status":"completed","date_posted":"09/09/2002"},
{"school_state":"NY","resource_type":"Other","poverty_level":"highest poverty","grade_level":"Grades PreK-2","total_donations":0,"funding_status":"expired","date_posted":"09/09/2002"},
{"school_state":"NY","resource_type":"Supplies","poverty_level":"highest poverty","grade_level":"Grades PreK-2","total_donations":395,"funding_status":"completed","date_posted":"09/09/2002"},
{"school_state":"NY","resource_type":"Technology","poverty_level":"highest poverty","grade_level":"Grades 6-8","total_donations":746,"funding_status":"completed","date_posted":"09/09/2002"},
{"school_state":"NY","resource_type":"Technology","poverty_level":"highest poverty","grade_level":"Grades 6-8","total_donations":393,"funding_status":"completed","date_posted":"09/09/2002"},
{"school_state":"NY","resource_type":"Books","poverty_level":"highest poverty","grade_level":"Grades 3-5","total_donations":278,"funding_status":"completed","date_posted":"07/09/2002"},
{"school_state":"NY","resource_type":"Technology","poverty_level":"highest poverty","grade_level":"Grades 6-8","total_donations":495,"funding_status":"completed","date_posted":"09/09/2002"},
{"school_state":"NY","resource_type":"Technology","poverty_level":"highest poverty","grade_level":"Grades 3-5","total_donations":397,"funding_status":"completed","date_posted":"09/09/2002"},
{"school_state":"NY","resource_type":"Technology","poverty_level":"low poverty","grade_level":"Grades PreK-2","total_donations":0,"funding_status":"completed","date_posted":"09/09/2002"},
{"school_state":"NY","resource_type":"Supplies","poverty_level":"highest poverty","grade_level":"Grades PreK-2","total_donations":59,"funding_status":"completed","date_posted":"09/09/2002"},
{"school_state":"NY","resource_type":"Other","poverty_level":"highest poverty","grade_level":"Grades PreK-2","total_donations":0,"funding_status":"expired","date_posted":"09/09/2002"},
{"school_state":"NY","resource_type":"Books","poverty_level":"highest poverty","grade_level":"Grades PreK-2","total_donations":500,"funding_status":"completed","date_posted":"09/09/2002"},
{"school_state":"NY","resource_type":"Supplies","poverty_level":"highest poverty","grade_level":"Grades 3-5","total_donations":258,"funding_status":"completed","date_posted":"09/09/2002"},
{"school_state":"NY","resource_type":"Books","poverty_level":"highest poverty","grade_level":"Grades 3-5","total_donations":600,"funding_status":"completed","date_posted":"09/09/2002"},
{"school_state":"NY","resource_type":"Supplies","poverty_level":"highest poverty","grade_level":"Grades 6-8","total_donations":0,"funding_status":"completed","date_posted":"09/09/2002"},
{"school_state":"NY","resource_type":"Books","poverty_level":"highest poverty","grade_level":"Grades 6-8","total_donations":282,"funding_status":"completed","date_posted":"09/09/2002"},
{"school_state":"NY","resource_type":"Books","poverty_level":"highest poverty","grade_level":"Grades PreK-2","total_donations":167,"funding_status":"completed","date_posted":"09/09/2002"},
{"school_state":"NY","resource_type":"Supplies","poverty_level":"highest poverty","grade_level":"Grades 9-12","total_donations":785,"funding_status":"completed","date_posted":"09/09/2002"},
{"school_state":"NY","resource_type":"Supplies","poverty_level":"highest poverty","grade_level":"Grades 6-8","total_donations":0,"funding_status":"completed","date_posted":"01/10/2002"},
{"school_state":"NY","resource_type":"Supplies","poverty_level":"highest poverty","grade_level":"Grades PreK-2","total_donations":385,"funding_status":"completed","date_posted":"09/09/2002"},
{"school_state":"NY","resource_type":"Supplies","poverty_level":"high poverty","grade_level":"Grades 3-5","total_donations":570,"funding_status":"completed","date_posted":"09/09/2002"},
{"school_state":"NY","resource_type":"Supplies","poverty_level":"low poverty","grade_level":"Grades 6-8","total_donations":0,"funding_status":"completed","date_posted":"09/09/2002"},
{"school_state":"NY","resource_type":"Supplies","poverty_level":"highest poverty","grade_level":"Grades 3-5","total_donations":249,"funding_status":"completed","date_posted":"09/09/2002"},
{"school_state":"NY","resource_type":"Supplies","poverty_level":"highest poverty","grade_level":"Grades 6-8","total_donations":1655,"funding_status":"completed","date_posted":"09/09/2002"},
{"school_state":"NY","resource_type":"Books","poverty_level":"highest poverty","grade_level":"Grades PreK-2","total_donations":108,"funding_status":"completed","date_posted":"09/09/2002"},
{"school_state":"NY","resource_type":"Books","poverty_level":"highest poverty","grade_level":"Grades PreK-2","total_donations":108,"funding_status":"completed","date_posted":"09/09/2002"},
{"school_state":"NY","resource_type":"Supplies","poverty_level":"high poverty","grade_level":"Grades PreK-2","total_donations":0,"funding_status":"completed","date_posted":"09/09/2002"},
{"school_state":"NY","resource_type":"Supplies","poverty_level":"highest poverty","grade_level":"Grades PreK-2","total_donations":102,"funding_status":"completed","date_posted":"09/09/2002"},
{"school_state":"NY","resource_type":"Supplies","poverty_level":"moderate poverty","grade_level":"Grades PreK-2","total_donations":480,"funding_status":"completed","date_posted":"09/09/2002"},
{"school_state":"NY","resource_type":"Supplies","poverty_level":"highest poverty","grade_level":"Grades 3-5","total_donations":324.5,"funding_status":"completed","date_posted":"09/09/2002"},
{"school_state":"NY","resource_type":"Other","poverty_level":"highest poverty","grade_level":"Grades 6-8","total_donations":230,"funding_status":"completed","date_posted":"09/09/2002"},
{"school_state":"NY","resource_type":"Supplies","poverty_level":"highest poverty","grade_level":"Grades 3-5","total_donations":157,"funding_status":"completed","date_posted":"05/09/2002"},
{"school_state":"NY","resource_type":"Supplies","poverty_level":"highest poverty","grade_level":"Grades 9-12","total_donations":1027.4,"funding_status":"completed","date_posted":"09/09/2002"},
{"school_state":"NY","resource_type":"Trips","poverty_level":"highest poverty","grade_level":"Grades PreK-2","total_donations":200,"funding_status":"completed","date_posted":"09/09/2002"},
{"school_state":"NY","resource_type":"Books","poverty_level":"highest poverty","grade_level":"Grades PreK-2","total_donations":426,"funding_status":"completed","date_posted":"09/09/2002"},
{"school_state":"NY","resource_type":"Books","poverty_level":"highest poverty","grade_level":"Grades 9-12","total_donations":561,"funding_status":"completed","date_posted":"09/09/2002"},
{"school_state":"NY","resource_type":"Books","poverty_level":"highest poverty","grade_level":"Grades 6-8","total_donations":1278,"funding_status":"completed","date_posted":"09/09/2002"},
{"school_state":"NY","resource_type":"Books","poverty_level":"high poverty","grade_level":"Grades 3-5","total_donations":0,"funding_status":"completed","date_posted":"09/09/2002"},
{"school_state":"NY","resource_type":"Books","poverty_level":"highest poverty","grade_level":"Grades 9-12","total_donations":1610,"funding_status":"completed","date_posted":"09/09/2002"},
{"school_state":"NY","resource_type":"Supplies","poverty_level":"highest poverty","grade_level":"Grades 9-12","total_donations":1610,"funding_status":"completed","date_posted":"09/09/2002"},
{"school_state":"NY","resource_type":"Supplies","poverty_level":"highest poverty","grade_level":"Grades 3-5","total_donations":167,"funding_status":"completed","date_posted":"09/09/2002"},
{"school_state":"NY","resource_type":"Technology","poverty_level":"highest poverty","grade_level":"Grades 3-5","total_donations":758.36,"funding_status":"completed","date_posted":"09/09/2002"},
{"school_state":"NY","resource_type":"Supplies","poverty_level":"highest poverty","grade_level":"Grades 6-8","total_donations":255,"funding_status":"completed","date_posted":"09/09/2002"},
{"school_state":"NY","resource_type":"Technology","poverty_level":"highest poverty","grade_level":"Grades 6-8","total_donations":83,"funding_status":"completed","date_posted":"07/09/2002"},
{"school_state":"NY","resource_type":"Supplies","poverty_level":"highest poverty","grade_level":"Grades 3-5","total_donations":233.2,"funding_status":"completed","date_posted":"09/09/2002"},
{"school_state":"NY","resource_type":"Supplies","poverty_level":"high poverty","grade_level":"Grades 6-8","total_donations":445,"funding_status":"completed","date_posted":"09/09/2002"},
{"school_state":"NY","resource_type":"Supplies","poverty_level":"highest poverty","grade_level":"Grades PreK-2","total_donations":199.1,"funding_status":"completed","date_posted":"09/09/2002"},
{"school_state":"NY","resource_type":"Supplies","poverty_level":"highest poverty","grade_level":"Grades PreK-2","total_donations":0,"funding_status":"completed","date_posted":"07/09/2002"},
{"school_state":"NY","resource_type":"Supplies","poverty_level":"highest poverty","grade_level":"Grades 3-5","total_donations":274,"funding_status":"completed","date_posted":"09/09/2002"},
{"school_state":"NY","resource_type":"Supplies","poverty_level":"highest poverty","grade_level":"Grades PreK-2","total_donations":254,"funding_status":"completed","date_posted":"07/09/2002"},
{"school_state":"NY","resource_type":"Other","poverty_level":"highest poverty","grade_level":"Grades 6-8","total_donations":468,"funding_status":"completed","date_posted":"09/09/2002"},
{"school_state":"NY","resource_type":"Books","poverty_level":"highest poverty","grade_level":"Grades 6-8","total_donations":500,"funding_status":"completed","date_posted":"09/09/2002"},
{"school_state":"NY","resource_type":"Supplies","poverty_level":"low poverty","grade_level":"Grades 9-12","total_donations":353.1,"funding_status":"completed","date_posted":"09/09/2002"},
{"school_state":"NY","resource_type":"Supplies","poverty_level":"highest poverty","grade_level":"Grades 9-12","total_donations":473.87,"funding_status":"completed","date_posted":"09/09/2002"},
{"school_state":"NY","resource_type":"Supplies","poverty_level":"highest poverty","grade_level":"Grades PreK-2","total_donations":257.4,"funding_status":"completed","date_posted":"09/09/2002"},
{"school_state":"NY","resource_type":"Supplies","poverty_level":"highest poverty","grade_level":"Grades PreK-2","total_donations":264,"funding_status":"completed","date_posted":"07/09/2002"},
{"school_state":"NY","resource_type":"Supplies","poverty_level":"high poverty","grade_level":"Grades 3-5","total_donations":95,"funding_status":"completed","date_posted":"09/09/2002"},
{"school_state":"NY","resource_type":"Supplies","poverty_level":"highest poverty","grade_level":"Grades 6-8","total_donations":251.9,"funding_status":"completed","date_posted":"03/09/2002"},
{"school_state":"NY","resource_type":"Technology","poverty_level":"highest poverty","grade_level":"Grades 6-8","total_donations":289.3,"funding_status":"completed","date_posted":"09/09/2002"},
{"school_state":"NY","resource_type":"Technology","poverty_level":"highest poverty","grade_level":"Grades 9-12","total_donations":814,"funding_status":"completed","date_posted":"09/09/2002"},
{"school_state":"NY","resource_type":"Supplies","poverty_level":"high poverty","grade_level":"Grades PreK-2","total_donations":205,"funding_status":"completed","date_posted":"07/09/2002"},
{"school_state":"NY","resource_type":"Books","poverty_level":"highest poverty","grade_level":"Grades 3-5","total_donations":480.7,"funding_status":"completed","date_posted":"09/09/2002"},
{"school_state":"NY","resource_type":"Supplies","poverty_level":"highest poverty","grade_level":"Grades 3-5","total_donations":400,"funding_status":"completed","date_posted":"09/09/2002"},
{"school_state":"NY","resource_type":"Books","poverty_level":"highest poverty","grade_level":"Grades 3-5","total_donations":799.7,"funding_status":"completed","date_posted":"09/09/2002"},
{"school_state":"NY","resource_type":"Supplies","poverty_level":"highest poverty","grade_level":"Grades PreK-2","total_donations":132,"funding_status":"completed","date_posted":"07/09/2002"},
{"school_state":"NY","resource_type":"Books","poverty_level":"highest poverty","grade_level":"Grades 3-5","total_donations":506,"funding_status":"completed","date_posted":"09/09/2002"},
{"school_state":"NY","resource_type":"Supplies","poverty_level":"highest poverty","grade_level":"Grades 6-8","total_donations":0,"funding_status":"completed","date_posted":"09/09/2002"},
{"school_state":"NY","resource_type":"Books","poverty_level":"highest poverty","grade_level":"Grades 9-12","total_donations":137,"funding_status":"completed","date_posted":"03/09/2002"},
{"school_state":"NY","resource_type":"Books","poverty_level":"highest poverty","grade_level":"Grades 3-5","total_donations":267.3,"funding_status":"completed","date_posted":"07/09/2002"},
{"school_state":"NY","resource_type":"Supplies","poverty_level":"highest poverty","grade_level":"Grades 6-8","total_donations":414,"funding_status":"completed","date_posted":"09/09/2002"},
{"school_state":"NY","resource_type":"Books","poverty_level":"highest poverty","grade_level":"Grades PreK-2","total_donations":361.9,"funding_status":"completed","date_posted":"09/09/2002"},
{"school_state":"NY","resource_type":"Supplies","poverty_level":"low poverty","grade_level":"Grades PreK-2","total_donations":320,"funding_status":"completed","date_posted":"07/09/2002"},
{"school_state":"NY","resource_type":"Technology","poverty_level":"highest poverty","grade_level":"Grades 6-8","total_donations":137.5,"funding_status":"completed","date_posted":"07/09/2002"},
{"school_state":"NY","resource_type":"Trips","poverty_level":"highest poverty","grade_level":"Grades 3-5","total_donations":2110,"funding_status":"completed","date_posted":"07/09/2002"},
{"school_state":"NY","resource_type":"Books","poverty_level":"highest poverty","grade_level":"Grades 6-8","total_donations":0,"funding_status":"completed","date_posted":"07/09/2002"},
{"school_state":"NY","resource_type":"Technology","poverty_level":"highest poverty","grade_level":"Grades 6-8","total_donations":364.1,"funding_status":"completed","date_posted":"07/09/2002"},
{"school_state":"NY","resource_type":"Supplies","poverty_level":"low poverty","grade_level":"Grades PreK-2","total_donations":454.3,"funding_status":"completed","date_posted":"07/09/2002"},
{"school_state":"NY","resource_type":"Supplies","poverty_level":"highest poverty","grade_level":"Grades 3-5","total_donations":633,"funding_status":"completed","date_posted":"09/11/2002"},
{"school_state":"NY","resource_type":"Books","poverty_level":"highest poverty","grade_level":"Grades 3-5","total_donations":734,"funding_status":"completed","date_posted":"09/11/2002"},
{"school_state":"NY","resource_type":"Books","poverty_level":"highest poverty","grade_level":"Grades 3-5","total_donations":517,"funding_status":"completed","date_posted":"09/11/2002"},
{"school_state":"NY","resource_type":"Supplies","poverty_level":"highest poverty","grade_level":"Grades 3-5","total_donations":420,"funding_status":"completed","date_posted":"09/11/2002"},
{"school_state":"NY","resource_type":"Supplies","poverty_level":"highest poverty","grade_level":"Grades 6-8","total_donations":472,"funding_status":"completed","date_posted":"09/11/2002"},
{"school_state":"NY","resource_type":"Technology","poverty_level":"high poverty","grade_level":"Grades 9-12","total_donations":0,"funding_status":"completed","date_posted":"02/11/2002"},
{"school_state":"NY","resource_type":"Books","poverty_level":"highest poverty","grade_level":"Grades 6-8","total_donations":289.3,"funding_status":"completed","date_posted":"09/11/2002"},
{"school_state":"NY","resource_type":"Other","poverty_level":"highest poverty","grade_level":"Grades 9-12","total_donations":321.2,"funding_status":"completed","date_posted":"09/09/2002"},
{"school_state":"NY","resource_type":"Books","poverty_level":"highest poverty","grade_level":"Grades 3-5","total_donations":508.2,"funding_status":"completed","date_posted":"07/09/2002"},
{"school_state":"NY","resource_type":"Books","poverty_level":"highest poverty","grade_level":"Grades 3-5","total_donations":367.4,"funding_status":"completed","date_posted":"07/09/2002"},
{"school_state":"NY","resource_type":"Supplies","poverty_level":"highest poverty","grade_level":"Grades 3-5","total_donations":403.7,"funding_status":"completed","date_posted":"01/09/2018"},
{"school_state":"NY","resource_type":"Books","poverty_level":"highest poverty","grade_level":"Grades 3-5","total_donations":539,"funding_status":"completed","date_posted":"01/09/2018"},
{"school_state":"NY","resource_type":"Technology","poverty_level":"highest poverty","grade_level":"Grades 3-5","total_donations":429,"funding_status":"completed","date_posted":"01/09/2018"},
{"school_state":"NY","resource_type":"Other","poverty_level":"highest poverty","grade_level":"Grades PreK-2","total_donations":0,"funding_status":"completed","date_posted":"01/09/2018"},
{"school_state":"NY","resource_type":"Books","poverty_level":"highest poverty","grade_level":"Grades 3-5","total_donations":453.2,"funding_status":"completed","date_posted":"01/09/2018"},
{"school_state":"NY","resource_type":"Technology","poverty_level":"highest poverty","grade_level":"Grades 9-12","total_donations":506,"funding_status":"completed","date_posted":"01/09/2018"},
{"school_state":"NY","resource_type":"Other","poverty_level":"highest poverty","grade_level":"Grades PreK-2","total_donations":0,"funding_status":"completed","date_posted":"01/09/2018"},
{"school_state":"NY","resource_type":"Supplies","poverty_level":"highest poverty","grade_level":"Grades PreK-2","total_donations":61.6,"funding_status":"completed","date_posted":"01/09/2018"},
{"school_state":"NY","resource_type":"Technology","poverty_level":"highest poverty","grade_level":"Grades 6-8","total_donations":592.5,"funding_status":"completed","date_posted":"09/11/2002"},
{"school_state":"NY","resource_type":"Other","poverty_level":"highest poverty","grade_level":"Grades PreK-2","total_donations":0,"funding_status":"completed","date_posted":"05/09/2002"},
{"school_state":"NY","resource_type":"Technology","poverty_level":"highest poverty","grade_level":"Grades PreK-2","total_donations":278.8,"funding_status":"completed","date_posted":"08/11/2002"},
{"school_state":"NY","resource_type":"Supplies","poverty_level":"highest poverty","grade_level":"Grades 9-12","total_donations":198,"funding_status":"completed","date_posted":"05/11/2002"},
{"school_state":"NY","resource_type":"Technology","poverty_level":"highest poverty","grade_level":"Grades 6-8","total_donations":619.08,"funding_status":"completed","date_posted":"01/09/2018"},
{"school_state":"NY","resource_type":"Books","poverty_level":"highest poverty","grade_level":"Grades 3-5","total_donations":469,"funding_status":"completed","date_posted":"01/09/2018"},
{"school_state":"NY","resource_type":"Technology","poverty_level":"highest poverty","grade_level":"Grades 3-5","total_donations":137,"funding_status":"completed","date_posted":"01/09/2018"},
{"school_state":"NY","resource_type":"Books","poverty_level":"highest poverty","grade_level":"Grades 3-5","total_donations":145.2,"funding_status":"completed","date_posted":"03/09/2002"},
{"school_state":"NY","resource_type":"Supplies","poverty_level":"highest poverty","grade_level":"Grades PreK-2","total_donations":120,"funding_status":"completed","date_posted":"01/09/2018"},
{"school_state":"NY","resource_type":"Technology","poverty_level":"highest poverty","grade_level":"Grades 6-8","total_donations":0,"funding_status":"completed","date_posted":"01/09/2018"},
{"school_state":"NY","resource_type":"Books","poverty_level":"highest poverty","grade_level":"Grades 3-5","total_donations":380.6,"funding_status":"completed","date_posted":"07/09/2002"},
{"school_state":"NY","resource_type":"Books","poverty_level":"highest poverty","grade_level":"Grades 3-5","total_donations":317.9,"funding_status":"completed","date_posted":"07/09/2002"},
{"school_state":"NY","resource_type":"Books","poverty_level":"highest poverty","grade_level":"Grades PreK-2","total_donations":146,"funding_status":"completed","date_posted":"07/09/2002"},
{"school_state":"NY","resource_type":"Books","poverty_level":"highest poverty","grade_level":"Grades 3-5","total_donations":298,"funding_status":"completed","date_posted":"07/09/2002"},
{"school_state":"NY","resource_type":"Books","poverty_level":"highest poverty","grade_level":"Grades 3-5","total_donations":363,"funding_status":"completed","date_posted":"07/09/2002"},
{"school_state":"NY","resource_type":"Books","poverty_level":"highest poverty","grade_level":"Grades 3-5","total_donations":772.5,"funding_status":"completed","date_posted":"07/09/2002"},
{"school_state":"NY","resource_type":"Supplies","poverty_level":"highest poverty","grade_level":"Grades 3-5","total_donations":390,"funding_status":"completed","date_posted":"07/09/2002"},
{"school_state":"NY","resource_type":"Books","poverty_level":"moderate poverty","grade_level":"Grades 6-8","total_donations":313.09,"funding_status":"completed","date_posted":"07/09/2002"},
{"school_state":"NY","resource_type":"Books","poverty_level":"highest poverty","grade_level":"Grades 6-8","total_donations":273.55,"funding_status":"completed","date_posted":"01/09/2018"},
{"school_state":"NY","resource_type":"Supplies","poverty_level":"highest poverty","grade_level":"Grades PreK-2","total_donations":330,"funding_status":"completed","date_posted":"01/09/2018"},
{"school_state":"NY","resource_type":"Supplies","poverty_level":"highest poverty","grade_level":"Grades 3-5","total_donations":376.19,"funding_status":"completed","date_posted":"01/09/2018"},
{"school_state":"NY","resource_type":"Trips","poverty_level":"highest poverty","grade_level":"Grades 9-12","total_donations":3300,"funding_status":"completed","date_posted":"03/09/2002"},
{"school_state":"NY","resource_type":"Other","poverty_level":"highest poverty","grade_level":"Grades PreK-2","total_donations":0,"funding_status":"expired","date_posted":"09/11/2002"},
{"school_state":"NY","resource_type":"Other","poverty_level":"highest poverty","grade_level":"Grades PreK-2","total_donations":0,"funding_status":"completed","date_posted":"09/11/2002"},
{"school_state":"NY","resource_type":"Other","poverty_level":"low poverty","grade_level":"Grades PreK-2","total_donations":0,"funding_status":"completed","date_posted":"09/11/2002"},
{"school_state":"NY","resource_type":"Supplies","poverty_level":"highest poverty","grade_level":"Grades 6-8","total_donations":677.65,"funding_status":"completed","date_posted":"09/11/2002"},
{"school_state":"NY","resource_type":"Books","poverty_level":"highest poverty","grade_level":"Grades 3-5","total_donations":554,"funding_status":"completed","date_posted":"01/09/2018"},
{"school_state":"NY","resource_type":"Supplies","poverty_level":"highest poverty","grade_level":"Grades 3-5","total_donations":900.9,"funding_status":"completed","date_posted":"07/09/2002"},
{"school_state":"NY","resource_type":"Trips","poverty_level":"highest poverty","grade_level":"Grades PreK-2","total_donations":978,"funding_status":"completed","date_posted":"01/09/2018"},
{"school_state":"NY","resource_type":"Books","poverty_level":"highest poverty","grade_level":"Grades 3-5","total_donations":1560,"funding_status":"completed","date_posted":"01/09/2018"},
{"school_state":"NY","resource_type":"Trips","poverty_level":"highest poverty","grade_level":"Grades 3-5","total_donations":555,"funding_status":"completed","date_posted":"09/06/2003"},
{"school_state":"NY","resource_type":"Books","poverty_level":"highest poverty","grade_level":"Grades 6-8","total_donations":191.4,"funding_status":"completed","date_posted":"01/09/2018"},
{"school_state":"NY","resource_type":"Supplies","poverty_level":"highest poverty","grade_level":"Grades PreK-2","total_donations":281.6,"funding_status":"completed","date_posted":"07/09/2002"},
{"school_state":"NY","resource_type":"Supplies","poverty_level":"highest poverty","grade_level":"Grades PreK-2","total_donations":516,"funding_status":"completed","date_posted":"01/09/2018"},
{"school_state":"NY","resource_type":"Technology","poverty_level":"highest poverty","grade_level":"Grades 3-5","total_donations":357,"funding_status":"completed","date_posted":"01/09/2018"},
{"school_state":"NY","resource_type":"Books","poverty_level":"highest poverty","grade_level":"Grades 6-8","total_donations":460,"funding_status":"completed","date_posted":"07/09/2002"},
{"school_state":"NY","resource_type":"Other","poverty_level":"highest poverty","grade_level":"Grades PreK-2","total_donations":0,"funding_status":"expired","date_posted":"08/01/2003"},
{"school_state":"NY","resource_type":"Books","poverty_level":"highest poverty","grade_level":"Grades PreK-2","total_donations":2362,"funding_status":"completed","date_posted":"09/09/2002"},
{"school_state":"NY","resource_type":"Supplies","poverty_level":"highest poverty","grade_level":"Grades PreK-2","total_donations":366.3,"funding_status":"completed","date_posted":"01/09/2018"},
{"school_state":"NY","resource_type":"Books","poverty_level":"highest poverty","grade_level":"Grades 3-5","total_donations":0,"funding_status":"completed","date_posted":"07/09/2002"},
{"school_state":"NY","resource_type":"Technology","poverty_level":"highest poverty","grade_level":"Grades 6-8","total_donations":295.9,"funding_status":"completed","date_posted":"01/09/2018"},
{"school_state":"NY","resource_type":"Other","poverty_level":"highest poverty","grade_level":"Grades PreK-2","total_donations":0,"funding_status":"expired","date_posted":"06/10/2002"},
{"school_state":"NY","resource_type":"Books","poverty_level":"highest poverty","grade_level":"Grades 6-8","total_donations":319,"funding_status":"completed","date_posted":"07/09/2002"},
{"school_state":"NY","resource_type":"Supplies","poverty_level":"highest poverty","grade_level":"Grades PreK-2","total_donations":175,"funding_status":"completed","date_posted":"07/09/2002"},
{"school_state":"NY","resource_type":"Books","poverty_level":"highest poverty","grade_level":"Grades 6-8","total_donations":440,"funding_status":"completed","date_posted":"05/10/2002"},
{"school_state":"NY","resource_type":"Technology","poverty_level":"highest poverty","grade_level":"Grades 9-12","total_donations":2237,"funding_status":"completed","date_posted":"09/10/2002"},
{"school_state":"NY","resource_type":"Supplies","poverty_level":"highest poverty","grade_level":"Grades 3-5","total_donations":308,"funding_status":"completed","date_posted":"01/09/2018"},
{"school_state":"NY","resource_type":"Supplies","poverty_level":"highest poverty","grade_level":"Grades 6-8","total_donations":861.45,"funding_status":"completed","date_posted":"07/11/2002"},
{"school_state":"NY","resource_type":"Supplies","poverty_level":"highest poverty","grade_level":"Grades PreK-2","total_donations":70.4,"funding_status":"completed","date_posted":"03/09/2002"},
{"school_state":"NY","resource_type":"Technology","poverty_level":"highest poverty","grade_level":"Grades 3-5","total_donations":143.5,"funding_status":"completed","date_posted":"09/11/2002"},
{"school_state":"NY","resource_type":"Books","poverty_level":"highest poverty","grade_level":"Grades 3-5","total_donations":309,"funding_status":"completed","date_posted":"05/10/2002"},
{"school_state":"NY","resource_type":"Technology","poverty_level":"highest poverty","grade_level":"Grades 3-5","total_donations":419,"funding_status":"completed","date_posted":"07/09/2002"},
{"school_state":"NY","resource_type":"Supplies","poverty_level":"low poverty","grade_level":"Grades 9-12","total_donations":528,"funding_status":"completed","date_posted":"11/10/2002"},
{"school_state":"NY","resource_type":"Technology","poverty_level":"highest poverty","grade_level":"Grades 9-12","total_donations":525.8,"funding_status":"completed","date_posted":"09/10/2002"},
{"school_state":"NY","resource_type":"Books","poverty_level":"high poverty","grade_level":"Grades 3-5","total_donations":238.7,"funding_status":"completed","date_posted":"06/10/2002"},
{"school_state":"NY","resource_type":"Books","poverty_level":"low poverty","grade_level":"Grades PreK-2","total_donations":578.6,"funding_status":"completed","date_posted":"05/10/2002"},
{"school_state":"NY","resource_type":"Technology","poverty_level":"highest poverty","grade_level":"Grades 3-5","total_donations":300,"funding_status":"completed","date_posted":"09/10/2002"},
{"school_state":"NY","resource_type":"Technology","poverty_level":"highest poverty","grade_level":"Grades 3-5","total_donations":251.9,"funding_status":"completed","date_posted":"09/10/2002"},
{"school_state":"NY","resource_type":"Other","poverty_level":"highest poverty","grade_level":"Grades 3-5","total_donations":471.49,"funding_status":"completed","date_posted":"08/10/2002"},
{"school_state":"NY","resource_type":"Supplies","poverty_level":"highest poverty","grade_level":"Grades 6-8","total_donations":0,"funding_status":"completed","date_posted":"05/11/2002"},
{"school_state":"NY","resource_type":"Technology","poverty_level":"highest poverty","grade_level":"Grades 3-5","total_donations":286,"funding_status":"completed","date_posted":"05/10/2002"},
{"school_state":"NY","resource_type":"Books","poverty_level":"highest poverty","grade_level":"Grades 3-5","total_donations":811,"funding_status":"completed","date_posted":"05/10/2002"},
{"school_state":"NY","resource_type":"Technology","poverty_level":"highest poverty","grade_level":"Grades 3-5","total_donations":440,"funding_status":"completed","date_posted":"01/10/2002"},
{"school_state":"NY","resource_type":"Supplies","poverty_level":"highest poverty","grade_level":"Grades 6-8","total_donations":580.23,"funding_status":"completed","date_posted":"09/10/2002"},
{"school_state":"NY","resource_type":"Supplies","poverty_level":"highest poverty","grade_level":"Grades PreK-2","total_donations":550.7,"funding_status":"completed","date_posted":"08/10/2002"},
{"school_state":"NY","resource_type":"Supplies","poverty_level":"highest poverty","grade_level":"Grades 3-5","total_donations":0,"funding_status":"completed","date_posted":"03/10/2002"},
{"school_state":"NY","resource_type":"Supplies","poverty_level":"highest poverty","grade_level":"Grades PreK-2","total_donations":506,"funding_status":"completed","date_posted":"03/10/2002"},
{"school_state":"NY","resource_type":"Books","poverty_level":"highest poverty","grade_level":"Grades 6-8","total_donations":627.22,"funding_status":"completed","date_posted":"05/10/2002"},
{"school_state":"NY","resource_type":"Supplies","poverty_level":"highest poverty","grade_level":"Grades PreK-2","total_donations":222,"funding_status":"completed","date_posted":"01/10/2002"},
{"school_state":"NY","resource_type":"Technology","poverty_level":"highest poverty","grade_level":"Grades 3-5","total_donations":242,"funding_status":"completed","date_posted":"06/09/2002"},
{"school_state":"NY","resource_type":"Supplies","poverty_level":"highest poverty","grade_level":"Grades PreK-2","total_donations":86.9,"funding_status":"completed","date_posted":"09/11/2002"},
{"school_state":"NY","resource_type":"Supplies","poverty_level":"highest poverty","grade_level":"Grades PreK-2","total_donations":92.4,"funding_status":"completed","date_posted":"03/10/2002"},
{"school_state":"NY","resource_type":"Supplies","poverty_level":"highest poverty","grade_level":"Grades PreK-2","total_donations":230,"funding_status":"completed","date_posted":"03/10/2002"},
{"school_state":"NY","resource_type":"Supplies","poverty_level":"highest poverty","grade_level":"Grades 3-5","total_donations":149.84,"funding_status":"completed","date_posted":"07/10/2002"},
{"school_state":"NY","resource_type":"Technology","poverty_level":"highest poverty","grade_level":"Grades 6-8","total_donations":369.6,"funding_status":"completed","date_posted":"01/10/2018"},
{"school_state":"NY","resource_type":"Supplies","poverty_level":"highest poverty","grade_level":"Grades 3-5","total_donations":0,"funding_status":"expired","date_posted":"07/10/2002"},
{"school_state":"NY","resource_type":"Supplies","poverty_level":"highest poverty","grade_level":"Grades 6-8","total_donations":361.9,"funding_status":"completed","date_posted":"03/10/2002"},
{"school_state":"NY","resource_type":"Supplies","poverty_level":"highest poverty","grade_level":"Grades 3-5","total_donations":453,"funding_status":"completed","date_posted":"06/09/2002"},
{"school_state":"NY","resource_type":"Supplies","poverty_level":"highest poverty","grade_level":"Grades 3-5","total_donations":780,"funding_status":"completed","date_posted":"01/10/2002"},
{"school_state":"NY","resource_type":"Books","poverty_level":"highest poverty","grade_level":"Grades 9-12","total_donations":855.8,"funding_status":"completed","date_posted":"07/10/2002"},
{"school_state":"NY","resource_type":"Supplies","poverty_level":"highest poverty","grade_level":"Grades 6-8","total_donations":314.6,"funding_status":"completed","date_posted":"06/10/2002"},
{"school_state":"NY","resource_type":"Technology","poverty_level":"highest poverty","grade_level":"Grades PreK-2","total_donations":213,"funding_status":"completed","date_posted":"01/10/2002"},
{"school_state":"NY","resource_type":"Other","poverty_level":"low poverty","grade_level":"Grades 9-12","total_donations":237,"funding_status":"completed","date_posted":"06/01/2013"},
{"school_state":"NY","resource_type":"Supplies","poverty_level":"highest poverty","grade_level":"Grades 3-5","total_donations":95.51,"funding_status":"completed","date_posted":"07/10/2002"},
{"school_state":"NY","resource_type":"Technology","poverty_level":"highest poverty","grade_level":"Grades 6-8","total_donations":0,"funding_status":"completed","date_posted":"05/10/2002"},
{"school_state":"NY","resource_type":"Supplies","poverty_level":"highest poverty","grade_level":"Grades PreK-2","total_donations":235.4,"funding_status":"completed","date_posted":"01/01/2011"},
{"school_state":"NY","resource_type":"Books","poverty_level":"highest poverty","grade_level":"Grades PreK-2","total_donations":888.22,"funding_status":"completed","date_posted":"01/10/2002"},
{"school_state":"NY","resource_type":"Supplies","poverty_level":"highest poverty","grade_level":"Grades PreK-2","total_donations":643,"funding_status":"completed","date_posted":"07/10/2002"},
{"school_state":"NY","resource_type":"Trips","poverty_level":"highest poverty","grade_level":"Grades 6-8","total_donations":341,"funding_status":"completed","date_posted":"01/01/2011"},
{"school_state":"NY","resource_type":"Supplies","poverty_level":"highest poverty","grade_level":"Grades 3-5","total_donations":1430,"funding_status":"completed","date_posted":"04/10/2002"},
{"school_state":"NY","resource_type":"Technology","poverty_level":"highest poverty","grade_level":"Grades PreK-2","total_donations":302.5,"funding_status":"completed","date_posted":"03/10/2002"},
{"school_state":"NY","resource_type":"Supplies","poverty_level":"highest poverty","grade_level":"Grades 3-5","total_donations":412.09,"funding_status":"completed","date_posted":"10/10/2002"},
{"school_state":"NY","resource_type":"Supplies","poverty_level":"moderate poverty","grade_level":"Grades 6-8","total_donations":71.5,"funding_status":"completed","date_posted":"08/10/2002"},
{"school_state":"NY","resource_type":"Technology","poverty_level":"highest poverty","grade_level":"Grades 6-8","total_donations":157,"funding_status":"completed","date_posted":"04/10/2002"},
{"school_state":"NY","resource_type":"Other","poverty_level":"highest poverty","grade_level":"Grades PreK-2","total_donations":0,"funding_status":"expired","date_posted":"04/10/2002"},
{"school_state":"NY","resource_type":"Trips","poverty_level":"highest poverty","grade_level":"Grades 3-5","total_donations":694.1,"funding_status":"completed","date_posted":"04/10/2002"},
{"school_state":"NY","resource_type":"Books","poverty_level":"highest poverty","grade_level":"Grades 6-8","total_donations":475,"funding_status":"completed","date_posted":"05/10/2002"},
{"school_state":"NY","resource_type":"Books","poverty_level":"highest poverty","grade_level":"Grades 3-5","total_donations":569.68,"funding_status":"completed","date_posted":"04/10/2002"},
{"school_state":"NY","resource_type":"Technology","poverty_level":"highest poverty","grade_level":"Grades 3-5","total_donations":370.7,"funding_status":"completed","date_posted":"05/11/2002"},
{"school_state":"NY","resource_type":"Trips","poverty_level":"low poverty","grade_level":"Grades 9-12","total_donations":1639,"funding_status":"completed","date_posted":"07/10/2002"},
{"school_state":"NY","resource_type":"Trips","poverty_level":"highest poverty","grade_level":"Grades 3-5","total_donations":460,"funding_status":"completed","date_posted":"08/10/2002"},
{"school_state":"NY","resource_type":"Supplies","poverty_level":"highest poverty","grade_level":"Grades PreK-2","total_donations":390.5,"funding_status":"completed","date_posted":"06/10/2002"},
{"school_state":"NY","resource_type":"Books","poverty_level":"highest poverty","grade_level":"Grades 9-12","total_donations":1608.1,"funding_status":"completed","date_posted":"05/10/2002"},
{"school_state":"NY","resource_type":"Supplies","poverty_level":"highest poverty","grade_level":"Grades 3-5","total_donations":381,"funding_status":"completed","date_posted":"08/10/2002"},
{"school_state":"NY","resource_type":"Supplies","poverty_level":"highest poverty","grade_level":"Grades 6-8","total_donations":2034,"funding_status":"completed","date_posted":"05/11/2002"},
{"school_state":"NY","resource_type":"Other","poverty_level":"highest poverty","grade_level":"Grades 9-12","total_donations":671,"funding_status":"completed","date_posted":"09/10/2002"},
{"school_state":"NY","resource_type":"Other","poverty_level":"highest poverty","grade_level":"Grades 6-8","total_donations":957,"funding_status":"completed","date_posted":"01/01/2011"},
{"school_state":"NY","resource_type":"Supplies","poverty_level":"highest poverty","grade_level":"Grades 6-8","total_donations":103,"funding_status":"completed","date_posted":"04/10/2002"},
{"school_state":"NY","resource_type":"Other","poverty_level":"highest poverty","grade_level":"Grades PreK-2","total_donations":0,"funding_status":"completed","date_posted":"05/10/2002"},
{"school_state":"NY","resource_type":"Trips","poverty_level":"highest poverty","grade_level":"Grades 6-8","total_donations":539,"funding_status":"completed","date_posted":"01/01/2011"},
{"school_state":"NY","resource_type":"Other","poverty_level":"highest poverty","grade_level":"Grades PreK-2","total_donations":0,"funding_status":"expired","date_posted":"04/10/2002"},
{"school_state":"NY","resource_type":"Technology","poverty_level":"highest poverty","grade_level":"Grades 3-5","total_donations":328.89,"funding_status":"completed","date_posted":"05/10/2002"},
{"school_state":"NY","resource_type":"Technology","poverty_level":"highest poverty","grade_level":"Grades 9-12","total_donations":1392,"funding_status":"completed","date_posted":"01/10/2018"},
{"school_state":"NY","resource_type":"Books","poverty_level":"highest poverty","grade_level":"Grades 6-8","total_donations":793,"funding_status":"completed","date_posted":"05/11/2002"},
{"school_state":"NY","resource_type":"Books","poverty_level":"highest poverty","grade_level":"Grades 6-8","total_donations":1450.91,"funding_status":"completed","date_posted":"07/10/2002"},
{"school_state":"NY","resource_type":"Other","poverty_level":"highest poverty","grade_level":"Grades PreK-2","total_donations":0,"funding_status":"expired","date_posted":"03/12/2003"},
{"school_state":"NY","resource_type":"Technology","poverty_level":"highest poverty","grade_level":"Grades 6-8","total_donations":436,"funding_status":"completed","date_posted":"08/10/2002"},
{"school_state":"NY","resource_type":"Books","poverty_level":"low poverty","grade_level":"Grades 9-12","total_donations":419,"funding_status":"completed","date_posted":"05/11/2002"},
{"school_state":"NY","resource_type":"Technology","poverty_level":"highest poverty","grade_level":"Grades 9-12","total_donations":11500,"funding_status":"completed","date_posted":"01/10/2002"},
{"school_state":"NY","resource_type":"Supplies","poverty_level":"highest poverty","grade_level":"Grades 9-12","total_donations":631.4,"funding_status":"completed","date_posted":"10/01/2003"},
{"school_state":"NY","resource_type":"Technology","poverty_level":"highest poverty","grade_level":"Grades 3-5","total_donations":762.45,"funding_status":"completed","date_posted":"09/10/2004"},
{"school_state":"NY","resource_type":"Books","poverty_level":"highest poverty","grade_level":"Grades PreK-2","total_donations":103.4,"funding_status":"completed","date_posted":"09/01/2003"},
{"school_state":"NY","resource_type":"Technology","poverty_level":"highest poverty","grade_level":"Grades 6-8","total_donations":378.73,"funding_status":"completed","date_posted":"08/02/2003"},
{"school_state":"NY","resource_type":"Books","poverty_level":"highest poverty","grade_level":"Grades 3-5","total_donations":752.4,"funding_status":"completed","date_posted":"08/11/2002"},
{"school_state":"NY","resource_type":"Supplies","poverty_level":"highest poverty","grade_level":"Grades 3-5","total_donations":50.55,"funding_status":"completed","date_posted":"06/11/2002"},
{"school_state":"NY","resource_type":"Supplies","poverty_level":"highest poverty","grade_level":"Grades 3-5","total_donations":511.5,"funding_status":"completed","date_posted":"11/11/2002"},
{"school_state":"NY","resource_type":"Supplies","poverty_level":"highest poverty","grade_level":"Grades PreK-2","total_donations":810.7,"funding_status":"completed","date_posted":"05/11/2002"},
{"school_state":"NY","resource_type":"Technology","poverty_level":"highest poverty","grade_level":"Grades 3-5","total_donations":283.96,"funding_status":"completed","date_posted":"07/10/2002"},
{"school_state":"NY","resource_type":"Supplies","poverty_level":"highest poverty","grade_level":"Grades PreK-2","total_donations":88,"funding_status":"completed","date_posted":"03/11/2002"},
{"school_state":"NY","resource_type":"Other","poverty_level":"highest poverty","grade_level":"Grades PreK-2","total_donations":0,"funding_status":"expired","date_posted":"04/11/2002"},
{"school_state":"NY","resource_type":"Books","poverty_level":"highest poverty","grade_level":"Grades 3-5","total_donations":559.9,"funding_status":"completed","date_posted":"04/11/2002"},
{"school_state":"NY","resource_type":"Technology","poverty_level":"highest poverty","grade_level":"Grades PreK-2","total_donations":218.45,"funding_status":"completed","date_posted":"05/11/2002"},
{"school_state":"NY","resource_type":"Trips","poverty_level":"high poverty","grade_level":"Grades PreK-2","total_donations":154,"funding_status":"completed","date_posted":"08/11/2002"},
{"school_state":"NY","resource_type":"Books","poverty_level":"highest poverty","grade_level":"Grades 6-8","total_donations":617.57,"funding_status":"completed","date_posted":"05/11/2002"},
{"school_state":"NY","resource_type":"Supplies","poverty_level":"highest poverty","grade_level":"Grades 3-5","total_donations":518,"funding_status":"completed","date_posted":"09/11/2002"},
{"school_state":"NY","resource_type":"Other","poverty_level":"highest poverty","grade_level":"Grades PreK-2","total_donations":0,"funding_status":"completed","date_posted":"05/11/2002"},
{"school_state":"NY","resource_type":"Books","poverty_level":"highest poverty","grade_level":"Grades 6-8","total_donations":0,"funding_status":"completed","date_posted":"05/11/2002"},
{"school_state":"NY","resource_type":"Books","poverty_level":"highest poverty","grade_level":"Grades PreK-2","total_donations":187,"funding_status":"completed","date_posted":"09/11/2002"},
{"school_state":"NY","resource_type":"Books","poverty_level":"highest poverty","grade_level":"Grades PreK-2","total_donations":128,"funding_status":"completed","date_posted":"09/11/2002"},
{"school_state":"NY","resource_type":"Books","poverty_level":"highest poverty","grade_level":"Grades PreK-2","total_donations":199,"funding_status":"completed","date_posted":"09/11/2002"},
{"school_state":"NY","resource_type":"Technology","poverty_level":"highest poverty","grade_level":"Grades PreK-2","total_donations":386.1,"funding_status":"completed","date_posted":"04/01/2003"},
{"school_state":"NY","resource_type":"Books","poverty_level":"highest poverty","grade_level":"Grades 6-8","total_donations":440,"funding_status":"completed","date_posted":"09/11/2002"},
{"school_state":"NY","resource_type":"Supplies","poverty_level":"highest poverty","grade_level":"Grades PreK-2","total_donations":556.6,"funding_status":"completed","date_posted":"08/11/2002"},
{"school_state":"NY","resource_type":"Supplies","poverty_level":"high poverty","grade_level":"Grades 3-5","total_donations":203.49,"funding_status":"completed","date_posted":"01/01/2003"},
{"school_state":"NY","resource_type":"Supplies","poverty_level":"highest poverty","grade_level":"Grades 3-5","total_donations":718,"funding_status":"completed","date_posted":"09/11/2002"},
{"school_state":"NY","resource_type":"Supplies","poverty_level":"highest poverty","grade_level":"Grades PreK-2","total_donations":432.9,"funding_status":"completed","date_posted":"04/11/2002"},
{"school_state":"NY","resource_type":"Technology","poverty_level":"highest poverty","grade_level":"Grades 6-8","total_donations":529,"funding_status":"completed","date_posted":"05/01/2003"},
{"school_state":"NY","resource_type":"Technology","poverty_level":"highest poverty","grade_level":"Grades PreK-2","total_donations":253.74,"funding_status":"completed","date_posted":"06/12/2002"},
{"school_state":"NY","resource_type":"Trips","poverty_level":"high poverty","grade_level":"Grades PreK-2","total_donations":288.2,"funding_status":"completed","date_posted":"08/11/2002"},
{"school_state":"NY","resource_type":"Other","poverty_level":"highest poverty","grade_level":"Grades PreK-2","total_donations":33,"funding_status":"completed","date_posted":"05/11/2002"},
{"school_state":"NY","resource_type":"Books","poverty_level":"highest poverty","grade_level":"Grades 3-5","total_donations":474.1,"funding_status":"completed","date_posted":"07/11/2002"},
{"school_state":"NY","resource_type":"Supplies","poverty_level":"highest poverty","grade_level":"Grades 3-5","total_donations":145.2,"funding_status":"completed","date_posted":"01/01/2013"},
{"school_state":"NY","resource_type":"Books","poverty_level":"highest poverty","grade_level":"Grades 3-5","total_donations":751.3,"funding_status":"completed","date_posted":"08/11/2002"},
{"school_state":"NY","resource_type":"Supplies","poverty_level":"low poverty","grade_level":"Grades 3-5","total_donations":1928,"funding_status":"completed","date_posted":"06/11/2002"},
{"school_state":"NY","resource_type":"Books","poverty_level":"highest poverty","grade_level":"Grades 3-5","total_donations":458.7,"funding_status":"completed","date_posted":"06/11/2002"},
{"school_state":"NY","resource_type":"Technology","poverty_level":"highest poverty","grade_level":"Grades PreK-2","total_donations":3278,"funding_status":"completed","date_posted":"08/11/2002"},
{"school_state":"NY","resource_type":"Supplies","poverty_level":"highest poverty","grade_level":"Grades 3-5","total_donations":854,"funding_status":"completed","date_posted":"06/11/2002"},
{"school_state":"NY","resource_type":"Supplies","poverty_level":"highest poverty","grade_level":"Grades 6-8","total_donations":138.6,"funding_status":"completed","date_posted":"07/11/2002"},
{"school_state":"NY","resource_type":"Technology","poverty_level":"highest poverty","grade_level":"Grades PreK-2","total_donations":285.55,"funding_status":"completed","date_posted":"07/11/2002"},
{"school_state":"NY","resource_type":"Books","poverty_level":"highest poverty","grade_level":"Grades 6-8","total_donations":290.4,"funding_status":"completed","date_posted":"09/11/2002"},
{"school_state":"NY","resource_type":"Supplies","poverty_level":"highest poverty","grade_level":"Grades 9-12","total_donations":342.1,"funding_status":"completed","date_posted":"08/11/2002"},
{"school_state":"NY","resource_type":"Books","poverty_level":"highest poverty","grade_level":"Grades PreK-2","total_donations":670,"funding_status":"completed","date_posted":"08/11/2002"},
{"school_state":"NY","resource_type":"Other","poverty_level":"highest poverty","grade_level":"Grades PreK-2","total_donations":0,"funding_status":"expired","date_posted":"06/11/2002"},
{"school_state":"NY","resource_type":"Supplies","poverty_level":"highest poverty","grade_level":"Grades PreK-2","total_donations":145.2,"funding_status":"completed","date_posted":"06/11/2002"},
{"school_state":"NY","resource_type":"Books","poverty_level":"highest poverty","grade_level":"Grades 3-5","total_donations":378.4,"funding_status":"completed","date_posted":"06/11/2002"},
{"school_state":"NY","resource_type":"Other","poverty_level":"highest poverty","grade_level":"Grades PreK-2","total_donations":0,"funding_status":"expired","date_posted":"01/01/2003"},
{"school_state":"NY","resource_type":"Technology","poverty_level":"highest poverty","grade_level":"Grades PreK-2","total_donations":325,"funding_status":"completed","date_posted":"06/11/2002"},
{"school_state":"NY","resource_type":"Books","poverty_level":"highest poverty","grade_level":"Grades 6-8","total_donations":176.25,"funding_status":"completed","date_posted":"06/01/2005"},
{"school_state":"NY","resource_type":"Books","poverty_level":"low poverty","grade_level":"Grades 6-8","total_donations":171,"funding_status":"completed","date_posted":"07/11/2002"},
{"school_state":"NY","resource_type":"Other","poverty_level":"highest poverty","grade_level":"Grades PreK-2","total_donations":0,"funding_status":"expired","date_posted":"07/11/2002"},
{"school_state":"NY","resource_type":"Supplies","poverty_level":"highest poverty","grade_level":"Grades 6-8","total_donations":255.2,"funding_status":"completed","date_posted":"08/11/2002"}
]}
